…
2. I'm curious how many countries are there in the data, and how many transactions each country had.

There are 38 countries present in this dataset, but 92% of observations belong to United Kingdom. Customer segmentation in different countries can be different. Thus, for this project, I'll focus on United Kingdom only. 


```r
df %>% 
  group_by(Country) %>% 
  summarise(n = n()) %>% 
  arrange(desc(n))
```

```
## # A tibble: 38 x 2
##    Country             n
##    <chr>           <int>
##  1 United Kingdom 220279
##  2 Germany          4208
##  3 France           3642
##  4 EIRE             3034
##  5 Netherlands      1142
##  6 Spain            1142
##  7 Belgium           933
##  8 Switzerland       708
##  9 Australia         642
## 10 Portugal          624
## # ... with 28 more rows
```
…
Below, we only have 2,652 observations for recency table. This is because I filter to only have positive `Quantity` before calculate recency, avoiding counting return days. There are 37 customers who only returned in this dataset. Since they must have purchased before but that data is not in this dataset, I will filter out these 37 customers in my analysis. 


```r
(recency_df <- nonadf %>% 
   # Filter to only have positive Quantity
  filter(Quantity > 0) %>% 
   # Calculate recency for each customer
  group_by(CustomerID) %>% 
  summarise(recency = as.integer(present - max(InvoiceDate))))
```

```
## # A tibble: 2,652 x 2
##    CustomerID recency
##         <int>   <int>
##  1      12346     160
##  2      12747      33
##  3      12748       4
##  4      12749      48
##  5      12820     161
##  6      12821      49
##  7      12823      89
##  8      12826      13
##  9      12829     171
## 10      12830       6
## # ... with 2,642 more rows
```
…
Let's calculate the number of purchases for each `CustomerID`.


```r
(frequency_df <- nonadf %>% 
  # create new column to detect return; 
  # if return then 0, else (if purchase) then 1
  mutate(return = ifelse(Quantity < 0, 0, 1)) %>% 
  # calculate number of purchases for each customer
  group_by(CustomerID) %>% 
  summarise(frequency = sum(return)))
```

```
## # A tibble: 2,689 x 2
##    CustomerID frequency
##         <int>     <dbl>
##  1      12346      1.00
##  2      12747     55.0 
##  3      12748   1579   
##  4      12749     43.0 
##  5      12820     11.0 
##  6      12821      6.00
##  7      12823      3.00
##  8      12826     56.0 
##  9      12829     11.0 
## 10      12830     13.0 
## # ... with 2,679 more rows
```
## Monetary value

To calculate the total money each customer spend, I take the sum of his/her revenue and loss. 

`Revenue/Loss = Quantity * Unit price`


```r
(money_df <- nonadf %>% 
  group_by(CustomerID) %>% 
  summarise(monetary_value = sum(Quantity*UnitPrice)))
```

```
## # A tibble: 2,689 x 2
##    CustomerID monetary_value
##         <int>          <dbl>
##  1      12346            0  
##  2      12747         2091  
##  3      12748        11028  
##  4      12749          782  
##  5      12820          170  
##  6      12821           92.7
##  7      12823          994  
##  8      12826          812  
##  9      12829          253  
## 10      12830         2222  
## # ... with 2,679 more rows
```
…
